ST 558 Project 1
…
#Read in edu_data_a using read_csv and give a local path.
edu_data_a <-read_csv("EDU01a.csv")

Rows: 3198 Columns: 42
── Column specification ────────────────────────────────────────────────────────
Delimiter: ","
chr (22): Area_name, STCOU, EDU010187N1, EDU010187N2, EDU010188N1, EDU010188...
dbl (20): EDU010187F, EDU010187D, EDU010188F, EDU010188D, EDU010189F, EDU010...

ℹ Use `spec()` to retrieve the full column specification for this data.
ℹ Specify the column types or set `show_col_types = FALSE` to quiet this message.

edu_data_a

# A tibble: 3,198 × 42
   Area_name     STCOU EDU010187F EDU010187D EDU010187N1 EDU010187N2 EDU010188F
   <chr>         <chr>      <dbl>      <dbl> <chr>       <chr>            <dbl>
 1 UNITED STATES 00000          0   40024299 0000        0000                 0
 2 ALABAMA       01000          0     733735 0000        0000                 0
 3 Autauga, AL   01001          0       6829 0000        0000                 0
 4 Baldwin, AL   01003          0      16417 0000        0000                 0
 5 Barbour, AL   01005          0       5071 0000        0000                 0
 6 Bibb, AL      01007          0       3557 0000        0000                 0
 7 Blount, AL    01009          0       7319 0000        0000                 0
 8 Bullock, AL   01011          0       2014 0000        0000                 0
 9 Butler, AL    01013          0       4640 0000        0000                 0
10 Calhoun, AL   01015          0      20939 0000        0000                 0
# ℹ 3,188 more rows
# ℹ 35 more variables: EDU010188D <dbl>, EDU010188N1 <chr>, EDU010188N2 <chr>,
#   EDU010189F <dbl>, EDU010189D <dbl>, EDU010189N1 <chr>, EDU010189N2 <chr>,
#   EDU010190F <dbl>, EDU010190D <dbl>, EDU010190N1 <chr>, EDU010190N2 <chr>,
#   EDU010191F <dbl>, EDU010191D <dbl>, EDU010191N1 <chr>, EDU010191N2 <chr>,
#   EDU010192F <dbl>, EDU010192D <dbl>, EDU010192N1 <chr>, EDU010192N2 <chr>,
#   EDU010193F <dbl>, EDU010193D <dbl>, EDU010193N1 <chr>, EDU010193N2 <chr>, …

#Overwrite data set. Select only columns Area_name, STCOU, and all columns ending with D. Rename the Area_name as area_name and pivot longer on columns 87-96. Then print out the dataframe.
edu_data_a <- edu_data_a |>
  select(Area_name, STCOU, ends_with("D")) |>
  rename(area_name = Area_name) |>
  pivot_longer(cols = EDU010187D:EDU010196D,
               names_to = "time",
               values_to = "enrollment")
edu_data_a

# A tibble: 31,980 × 4
   area_name     STCOU time       enrollment
   <chr>         <chr> <chr>           <dbl>
 1 UNITED STATES 00000 EDU010187D   40024299
 2 UNITED STATES 00000 EDU010188D   39967624
 3 UNITED STATES 00000 EDU010189D   40317775
 4 UNITED STATES 00000 EDU010190D   40737600
 5 UNITED STATES 00000 EDU010191D   41385442
 6 UNITED STATES 00000 EDU010192D   42088151
 7 UNITED STATES 00000 EDU010193D   42724710
 8 UNITED STATES 00000 EDU010194D   43369917
 9 UNITED STATES 00000 EDU010195D   43993459
10 UNITED STATES 00000 EDU010196D   44715737
# ℹ 31,970 more rows
…
#Take the original data set and add columns for Year_Date and measurment as created above. Then get rid of the time variable where the strings came from because it is no longer needed.
edu_data_a <- edu_data_a |>
  mutate(Year_Date = Year_Date,
         Measurement = measurement) |>
  select(-time)

#Create two data sets for county and non county data. This gets the indices for where the pattern of County, DD where DD is the state holds.
county_indices <- grep(pattern = ", \\w\\w", edu_data_a$area_name)

#Create new dataset called county_data with all the rows in the indices above.
county_data <- edu_data_a |>
  filter(row_number() %in% county_indices)
county_data

# A tibble: 31,450 × 5
   area_name   STCOU enrollment Year_Date Measurement
   <chr>       <chr>      <dbl>     <dbl> <chr>      
 1 Autauga, AL 01001       6829      1987 EDU0101    
 2 Autauga, AL 01001       6900      1988 EDU0101    
 3 Autauga, AL 01001       6920      1989 EDU0101    
 4 Autauga, AL 01001       6847      1990 EDU0101    
 5 Autauga, AL 01001       7008      1991 EDU0101    
 6 Autauga, AL 01001       7137      1992 EDU0101    
 7 Autauga, AL 01001       7152      1993 EDU0101    
 8 Autauga, AL 01001       7381      1994 EDU0101    
 9 Autauga, AL 01001       7568      1995 EDU0101    
10 Autauga, AL 01001       7834      1996 EDU0101    
# ℹ 31,440 more rows

#Add a class called county.
class(county_data) <- c("county", class(county_data))
class(county_data)

[1] "county"     "tbl_df"     "tbl"        "data.frame"

#Create new dataset called non_county_data with all the rows not in the indices above.
non_county_data <- edu_data_a |>
  filter(!row_number() %in% county_indices)
non_county_data

# A tibble: 530 × 5
   area_name     STCOU enrollment Year_Date Measurement
   <chr>         <chr>      <dbl>     <dbl> <chr>      
 1 UNITED STATES 00000   40024299      1987 EDU0101    
 2 UNITED STATES 00000   39967624      1988 EDU0101    
 3 UNITED STATES 00000   40317775      1989 EDU0101    
 4 UNITED STATES 00000   40737600      1990 EDU0101    
 5 UNITED STATES 00000   41385442      1991 EDU0101    
 6 UNITED STATES 00000   42088151      1992 EDU0101    
 7 UNITED STATES 00000   42724710      1993 EDU0101    
 8 UNITED STATES 00000   43369917      1994 EDU0101    
 9 UNITED STATES 00000   43993459      1995 EDU0101    
10 UNITED STATES 00000   44715737      1996 EDU0101    
# ℹ 520 more rows
#Add a class called state.
class(non_county_data) <- c("state", class(non_county_data))

state_name <- character(31450)
for(i in 1:31450){
  state_info <- substr(county_data$area_name[i], nchar(county_data$area_name[i]) -1, nchar(county_data$area_name[i]))

state_name[i] <- state_info
}
county_data <- county_data |>
  mutate(State_Name = state_name)

county_data

# A tibble: 31,450 × 6
   area_name   STCOU enrollment Year_Date Measurement State_Name
   <chr>       <chr>      <dbl>     <dbl> <chr>       <chr>     
 1 Autauga, AL 01001       6829      1987 EDU0101     AL        
 2 Autauga, AL 01001       6900      1988 EDU0101     AL        
 3 Autauga, AL 01001       6920      1989 EDU0101     AL        
 4 Autauga, AL 01001       6847      1990 EDU0101     AL        
 5 Autauga, AL 01001       7008      1991 EDU0101     AL        
 6 Autauga, AL 01001       7137      1992 EDU0101     AL        
 7 Autauga, AL 01001       7152      1993 EDU0101     AL        
 8 Autauga, AL 01001       7381      1994 EDU0101     AL        
 9 Autauga, AL 01001       7568      1995 EDU0101     AL        
10 Autauga, AL 01001       7834      1996 EDU0101     AL        
# ℹ 31,440 more rows

#Create divisions.
non_county_data

# A tibble: 530 × 5
   area_name     STCOU enrollment Year_Date Measurement
   <chr>         <chr>      <dbl>     <dbl> <chr>      
 1 UNITED STATES 00000   40024299      1987 EDU0101    
 2 UNITED STATES 00000   39967624      1988 EDU0101    
 3 UNITED STATES 00000   40317775      1989 EDU0101    
 4 UNITED STATES 00000   40737600      1990 EDU0101    
 5 UNITED STATES 00000   41385442      1991 EDU0101    
 6 UNITED STATES 00000   42088151      1992 EDU0101    
 7 UNITED STATES 00000   42724710      1993 EDU0101    
 8 UNITED STATES 00000   43369917      1994 EDU0101    
 9 UNITED STATES 00000   43993459      1995 EDU0101    
10 UNITED STATES 00000   44715737      1996 EDU0101    
# ℹ 520 more rows
…
}

new_edu_data_b <- education_data(edu_data_b)
new_edu_data_b

# A tibble: 31,980 × 4
   area_name     STCOU time       Enrollment
   <chr>         <chr> <chr>           <dbl>
 1 UNITED STATES 00000 EDU010197D   44534459
 2 UNITED STATES 00000 EDU010198D   46245814
 3 UNITED STATES 00000 EDU010199D   46368903
 4 UNITED STATES 00000 EDU010200D   46818690
 5 UNITED STATES 00000 EDU010201D   47127066
 6 UNITED STATES 00000 EDU010202D   47606570
 7 UNITED STATES 00000 EDU015203D   48506317
 8 UNITED STATES 00000 EDU015204D   48693287
 9 UNITED STATES 00000 EDU015205D   48978555
10 UNITED STATES 00000 EDU015206D   49140702
# ℹ 31,970 more rows

new_function(new_edu_data_b)

# A tibble: 31,980 × 5
   area_name     STCOU Enrollment Year_Date Measurement
   <chr>         <chr>      <dbl>     <dbl> <chr>      
 1 UNITED STATES 00000   44534459      1997 EDU0101    
 2 UNITED STATES 00000   46245814      1998 EDU0101    
 3 UNITED STATES 00000   46368903      1999 EDU0101    
 4 UNITED STATES 00000   46818690      2000 EDU0102    
 5 UNITED STATES 00000   47127066      2001 EDU0102    
 6 UNITED STATES 00000   47606570      2002 EDU0102    
 7 UNITED STATES 00000   48506317      2003 EDU0152    
 8 UNITED STATES 00000   48693287      2004 EDU0152    
 9 UNITED STATES 00000   48978555      2005 EDU0152    
10 UNITED STATES 00000   49140702      2006 EDU0152    
# ℹ 31,970 more rows
…
